…
```{r saveSets}
write.table(normalSubset,sep=",","TCGA_Barcode_Dict_Normal.tsv", row.names = FALSE, quote = FALSE)
write.table(tumorSubset,sep=",","TCGA_Barcode_Dict_Tumor.tsv", row.names = FALSE, quote = FALSE) 
write.table(allDataset,sep=",","TCGA_Barcode_Dict_All2Lung.tsv", row.names = FALSE, quote = FALSE) 
```

#### Lecture du ficher Tumeur pour la suite des opérations de regroupement des fichiers individuels Tumeur en une matrice unifié de comptes Tumeur
```{r MergeTumor, message=FALSE}
TCGA_Barcodes <- read_csv("TCGA_Barcode_Dict_Tumor.tsv",col_names = c("Filename","BarCode"),skip =1 )
```
```
> TCGA_Barcodes
# A tibble: 1,002 x 2
   Filename                                             BarCode         
   <chr>                                                <chr>           
 1 d1489e83-a47f-4d2e-b330-c0698b1ccc27.htseq.counts.gz HNSC.CV.A45V.01A
 2 f38a09f0-50e3-45c9-92a2-18e7639bfd6f.htseq.counts.gz HNSC.H7.7774.01A
 3 352b68d8-a9a2-4210-9f28-071b777654c0.htseq.counts.gz HNSC.CQ.A4CG.01A
 4 537d05c7-a7d0-48ab-aae0-90fde055a277.htseq.counts.gz HNSC.CV.5970.01A
 5 3bdbc229-cbc8-401b-836c-90e76ff3866b.htseq.counts.gz LUSC.94.7943.01A
 6 db2ba932-0f99-4e43-ab09-355bed4651e7.htseq.counts.gz LUSC.68.8251.01A
 7 211f4551-8720-4f0d-9c59-88108fcc037f.htseq.counts.gz HNSC.HD.8635.01A
 8 1aebe8a0-7fcb-407d-aa21-55e386f7297e.htseq.counts.gz HNSC.CV.7250.01A
 9 728d636b-1d0c-4835-9a06-9d84c6ae21a8.htseq.counts.gz HNSC.CR.6487.01A
10 84742003-9470-44dd-8fbf-c1a73468b8d8.htseq.counts.gz HNSC.CN.6018.01A
# … with 992 more rows
```
…
#### Ici nous pouvons voir que le tibble (data.fram/matrice) de Gene et tous les comptes, par échantillon est créée. La dimension du tibble est de 60483 lignes (Genes) par 1003 colonnes (Mais 1002 Échantillions):
```{r, eval=FALSE}
head(rawCounts.df)
```
```
# A tibble: 60,483 x 1,003
   Genes     LUSC.56.7823.01B LUSC.33.4538.01A LUSC.34.2608.01A LUSC.XC.AA0X.01A
   <chr>                <dbl>            <dbl>            <dbl>            <dbl>
 1 ENSG0000…             1988             4640             4641             2193
 2 ENSG0000…                1                2                0                0
 3 ENSG0000…             1194             3645             2478             1702
 4 ENSG0000…              449             1189             1039              565
 5 ENSG0000…              748             1348              480              338
 6 ENSG0000…              194              443             1406             2927
 7 ENSG0000…             1515             1593             6691             2074
 8 ENSG0000…             2312             3488             4718             2663
 9 ENSG0000…            20363            27375            14515            12626
10 ENSG0000…             2346             2236             2028             1337
# … with 60,473 more rows, and 998 more variables: HNSC.BA.A4II.01A <dbl>,
#   HNSC.DQ.5629.01A <dbl>, LUSC.77.8153.01A <dbl>, HNSC.BB.4227.01A <dbl>,
#   HNSC.CN.A63U.01A <dbl>, LUSC.22.4613.01A <dbl>, LUSC.85.8277.01A <dbl>,
#   LUSC.60.2696.01A <dbl>, LUSC.18.3408.01A <dbl>, HNSC.CV.6935.01A <dbl>,
#   HNSC.CN.5366.01A <dbl>, LUSC.58.A46L.01A <dbl>, HNSC.IQ.A6SG.01A <dbl>,
```
…
